[10-08-2018 10:26:17] PayPal\Core\PayPalHttpConnection : INFO: POST https://api.sandbox.paypal.com/v1/oauth2/token
[10-08-2018 10:26:18] PayPal\Core\PayPalHttpConnection : INFO: Response Status 	: 200
[10-08-2018 10:26:18] PayPal\Core\PayPalHttpConnection : INFO: POST https://api.sandbox.paypal.com/v1/payments/payment
[10-08-2018 10:26:19] PayPal\Core\PayPalHttpConnection : INFO: Response Status 	: 201
[10-08-2018 10:30:12] PayPal\Core\PayPalHttpConnection : INFO: POST https://api.sandbox.paypal.com/v1/oauth2/token
[10-08-2018 10:30:13] PayPal\Core\PayPalHttpConnection : INFO: Response Status 	: 200
[10-08-2018 10:30:13] PayPal\Core\PayPalHttpConnection : INFO: POST https://api.sandbox.paypal.com/v1/payments/payment
[10-08-2018 10:30:14] PayPal\Core\PayPalHttpConnection : INFO: Response Status 	: 201
[10-08-2018 10:31:00] PayPal\Core\PayPalHttpConnection : INFO: POST https://api.sandbox.paypal.com/v1/oauth2/token
[10-08-2018 10:31:01] PayPal\Core\PayPalHttpConnection : INFO: Response Status 	: 200
[10-08-2018 10:31:01] PayPal\Core\PayPalHttpConnection : INFO: POST https://api.sandbox.paypal.com/v1/payments/payment
[10-08-2018 10:31:02] PayPal\Core\PayPalHttpConnection : INFO: Response Status 	: 201
[10-08-2018 10:31:35] PayPal\Core\PayPalHttpConnection : INFO: POST https://api.sandbox.paypal.com/v1/oauth2/token
[10-08-2018 10:31:36] PayPal\Core\PayPalHttpConnection : INFO: Response Status 	: 200
[10-08-2018 10:31:36] PayPal\Core\PayPalHttpConnection : INFO: POST https://api.sandbox.paypal.com/v1/payments/payment
[10-08-2018 10:31:38] PayPal\Core\PayPalHttpConnection : INFO: Response Status 	: 201
[11-08-2018 02:09:10] PayPal\Core\PayPalHttpConnection : INFO: POST https://api.sandbox.paypal.com/v1/oauth2/token
[11-08-2018 02:09:11] PayPal\Core\PayPalHttpConnection : INFO: Response Status 	: 200
[11-08-2018 02:09:11] PayPal\Core\PayPalHttpConnection : INFO: POST https://api.sandbox.paypal.com/v1/payments/payment
[11-08-2018 02:09:12] PayPal\Core\PayPalHttpConnection : INFO: Response Status 	: 201
[13-08-2018 10:21:00] PayPal\Core\PayPalHttpConnection : INFO: POST https://api.sandbox.paypal.com/v1/oauth2/token
[13-08-2018 10:21:01] PayPal\Core\PayPalHttpConnection : INFO: Response Status 	: 200
[13-08-2018 10:21:01] PayPal\Core\PayPalHttpConnection : INFO: POST https://api.sandbox.paypal.com/v1/payments/payment
[13-08-2018 10:21:02] PayPal\Core\PayPalHttpConnection : INFO: Response Status 	: 201
[13-08-2018 02:16:12] PayPal\Core\PayPalHttpConnection : INFO: POST https://api.sandbox.paypal.com/v1/oauth2/token
[13-08-2018 02:16:14] PayPal\Core\PayPalHttpConnection : INFO: Response Status 	: 200
[13-08-2018 02:16:14] PayPal\Core\PayPalHttpConnection : INFO: POST https://api.sandbox.paypal.com/v1/payments/payment
[13-08-2018 02:16:15] PayPal\Core\PayPalHttpConnection : INFO: Response Status 	: 201
[15-08-2018 12:43:26] PayPal\Core\PayPalHttpConnection : INFO: POST https://api.sandbox.paypal.com/v1/oauth2/token
[15-08-2018 12:43:30] PayPal\Core\PayPalHttpConnection : INFO: Response Status 	: 200
[15-08-2018 12:43:30] PayPal\Core\PayPalHttpConnection : INFO: POST https://api.sandbox.paypal.com/v1/payments/payment
[15-08-2018 12:43:31] PayPal\Core\PayPalHttpConnection : INFO: Response Status 	: 201
[15-08-2018 12:47:09] PayPal\Core\PayPalHttpConnection : INFO: POST https://api.sandbox.paypal.com/v1/oauth2/token
[15-08-2018 12:47:10] PayPal\Core\PayPalHttpConnection : INFO: Response Status 	: 200
[15-08-2018 12:47:10] PayPal\Core\PayPalHttpConnection : INFO: POST https://api.sandbox.paypal.com/v1/payments/payment
[15-08-2018 12:47:12] PayPal\Core\PayPalHttpConnection : INFO: Response Status 	: 201
[15-08-2018 12:49:28] PayPal\Core\PayPalHttpConnection : INFO: POST https://api.sandbox.paypal.com/v1/oauth2/token
[15-08-2018 12:49:29] PayPal\Core\PayPalHttpConnection : INFO: Response Status 	: 200
[15-08-2018 12:49:29] PayPal\Core\PayPalHttpConnection : INFO: POST https://api.sandbox.paypal.com/v1/payments/payment
[15-08-2018 12:49:47] PayPal\Core\PayPalHttpConnection : INFO: Response Status 	: 201
[16-08-2018 10:09:16] PayPal\Core\PayPalHttpConnection : INFO: POST https://api.sandbox.paypal.com/v1/oauth2/token
[16-08-2018 10:09:18] PayPal\Core\PayPalHttpConnection : INFO: Response Status 	: 200
[16-08-2018 10:09:18] PayPal\Core\PayPalHttpConnection : INFO: POST https://api.sandbox.paypal.com/v1/payments/payment
[16-08-2018 10:09:33] PayPal\Core\PayPalHttpConnection : INFO: Response Status 	: 201
[16-08-2018 10:51:53] PayPal\Core\PayPalHttpConnection : INFO: POST https://api.sandbox.paypal.com/v1/oauth2/token
[16-08-2018 10:51:54] PayPal\Core\PayPalHttpConnection : INFO: Response Status 	: 200
[16-08-2018 10:51:54] PayPal\Core\PayPalHttpConnection : INFO: POST https://api.sandbox.paypal.com/v1/payments/payment
[16-08-2018 10:52:11] PayPal\Core\PayPalHttpConnection : INFO: Response Status 	: 201
[16-08-2018 10:59:32] PayPal\Core\PayPalHttpConnection : INFO: POST https://api.sandbox.paypal.com/v1/oauth2/token
[16-08-2018 10:59:35] PayPal\Core\PayPalHttpConnection : INFO: Response Status 	: 200
[16-08-2018 10:59:35] PayPal\Core\PayPalHttpConnection : INFO: POST https://api.sandbox.paypal.com/v1/payments/payment
[16-08-2018 10:59:36] PayPal\Core\PayPalHttpConnection : INFO: Response Status 	: 400
[16-08-2018 10:59:36] PayPal\Core\PayPalHttpConnection : ERROR: Got Http response code 400 when accessing https://api.sandbox.paypal.com/v1/payments/payment. {"name":"VALIDATION_ERROR","details":[{"field":"payer.funding_instruments[0].credit_card.number","issue":"Value is invalid."},{"field":"payer.funding_instruments[0].credit_card.number","issue":"Value must be numeric."}],"message":"Invalid request. See details.","information_link":"https://developer.paypal.com/docs/api/payments/#errors","debug_id":"1d0090462e397"}
[16-08-2018 11:00:03] PayPal\Core\PayPalHttpConnection : INFO: POST https://api.sandbox.paypal.com/v1/oauth2/token
[16-08-2018 11:00:04] PayPal\Core\PayPalHttpConnection : INFO: Response Status 	: 200
[16-08-2018 11:00:04] PayPal\Core\PayPalHttpConnection : INFO: POST https://api.sandbox.paypal.com/v1/payments/payment
[16-08-2018 11:00:05] PayPal\Core\PayPalHttpConnection : INFO: Response Status 	: 400
[16-08-2018 11:00:05] PayPal\Core\PayPalHttpConnection : ERROR: Got Http response code 400 when accessing https://api.sandbox.paypal.com/v1/payments/payment. {"name":"VALIDATION_ERROR","details":[{"field":"payer.funding_instruments[0].credit_card.number","issue":"Value is invalid."},{"field":"payer.funding_instruments[0].credit_card.number","issue":"Value must be numeric."}],"message":"Invalid request. See details.","information_link":"https://developer.paypal.com/docs/api/payments/#errors","debug_id":"50d2615411bcd"}
[16-08-2018 11:02:14] PayPal\Core\PayPalHttpConnection : INFO: POST https://api.sandbox.paypal.com/v1/oauth2/token
[16-08-2018 11:02:15] PayPal\Core\PayPalHttpConnection : INFO: Response Status 	: 200
[16-08-2018 11:02:15] PayPal\Core\PayPalHttpConnection : INFO: POST https://api.sandbox.paypal.com/v1/payments/payment
[16-08-2018 11:02:16] PayPal\Core\PayPalHttpConnection : INFO: Response Status 	: 400
[16-08-2018 11:02:16] PayPal\Core\PayPalHttpConnection : ERROR: Got Http response code 400 when accessing https://api.sandbox.paypal.com/v1/payments/payment. {"name":"VALIDATION_ERROR","details":[{"field":"payer.funding_instruments[0].credit_card.number","issue":"Value must be numeric."},{"field":"payer.funding_instruments[0].credit_card.number","issue":"Value is invalid."}],"message":"Invalid request. See details.","information_link":"https://developer.paypal.com/docs/api/payments/#errors","debug_id":"2216c8c0ed669"}
[16-08-2018 11:03:56] PayPal\Core\PayPalHttpConnection : INFO: POST https://api.sandbox.paypal.com/v1/oauth2/token
[16-08-2018 11:03:57] PayPal\Core\PayPalHttpConnection : INFO: Response Status 	: 200
[16-08-2018 11:03:57] PayPal\Core\PayPalHttpConnection : INFO: POST https://api.sandbox.paypal.com/v1/payments/payment
[16-08-2018 11:04:10] PayPal\Core\PayPalHttpConnection : INFO: Response Status 	: 201
[16-08-2018 11:17:01] PayPal\Core\PayPalHttpConnection : INFO: POST https://api.sandbox.paypal.com/v1/oauth2/token
[16-08-2018 11:17:02] PayPal\Core\PayPalHttpConnection : INFO: Response Status 	: 200
[16-08-2018 11:17:02] PayPal\Core\PayPalHttpConnection : INFO: POST https://api.sandbox.paypal.com/v1/payments/payment
[16-08-2018 11:17:15] PayPal\Core\PayPalHttpConnection : INFO: Response Status 	: 201
[17-08-2018 10:57:22] PayPal\Core\PayPalHttpConnection : INFO: POST https://api.sandbox.paypal.com/v1/oauth2/token
[17-08-2018 10:57:24] PayPal\Core\PayPalHttpConnection : INFO: Response Status 	: 200
[17-08-2018 10:57:24] PayPal\Core\PayPalHttpConnection : INFO: POST https://api.sandbox.paypal.com/v1/payments/payment
[17-08-2018 10:57:25] PayPal\Core\PayPalHttpConnection : INFO: Response Status 	: 400
[17-08-2018 10:57:25] PayPal\Core\PayPalHttpConnection : ERROR: Got Http response code 400 when accessing https://api.sandbox.paypal.com/v1/payments/payment. {"name":"VALIDATION_ERROR","details":[{"field":"payer.funding_instruments[0].credit_card.type","issue":"Required field is missing."}],"message":"Invalid request. See details.","information_link":"https://developer.paypal.com/docs/api/payments/#errors","debug_id":"917b301cf77d"}
[17-08-2018 10:57:56] PayPal\Core\PayPalHttpConnection : INFO: POST https://api.sandbox.paypal.com/v1/oauth2/token
[17-08-2018 10:57:57] PayPal\Core\PayPalHttpConnection : INFO: Response Status 	: 200
[17-08-2018 10:57:57] PayPal\Core\PayPalHttpConnection : INFO: POST https://api.sandbox.paypal.com/v1/payments/payment
[17-08-2018 10:57:58] PayPal\Core\PayPalHttpConnection : INFO: Response Status 	: 400
[17-08-2018 10:57:58] PayPal\Core\PayPalHttpConnection : ERROR: Got Http response code 400 when accessing https://api.sandbox.paypal.com/v1/payments/payment. {"name":"VALIDATION_ERROR","details":[{"field":"payer.funding_instruments[0].credit_card.type","issue":"Required field is missing."}],"message":"Invalid request. See details.","information_link":"https://developer.paypal.com/docs/api/payments/#errors","debug_id":"a36e0aed2c496"}
[17-08-2018 10:58:08] PayPal\Core\PayPalHttpConnection : INFO: POST https://api.sandbox.paypal.com/v1/oauth2/token
[17-08-2018 10:58:11] PayPal\Core\PayPalHttpConnection : INFO: Response Status 	: 200
[17-08-2018 10:58:11] PayPal\Core\PayPalHttpConnection : INFO: POST https://api.sandbox.paypal.com/v1/payments/payment
[17-08-2018 10:58:12] PayPal\Core\PayPalHttpConnection : INFO: Response Status 	: 400
[17-08-2018 10:58:12] PayPal\Core\PayPalHttpConnection : ERROR: Got Http response code 400 when accessing https://api.sandbox.paypal.com/v1/payments/payment. {"name":"VALIDATION_ERROR","details":[{"field":"payer.funding_instruments[0].credit_card.type","issue":"Required field is missing."}],"message":"Invalid request. See details.","information_link":"https://developer.paypal.com/docs/api/payments/#errors","debug_id":"52c3c48728981"}
[17-08-2018 10:59:49] PayPal\Core\PayPalHttpConnection : INFO: POST https://api.sandbox.paypal.com/v1/oauth2/token
[17-08-2018 10:59:50] PayPal\Core\PayPalHttpConnection : INFO: Response Status 	: 200
[17-08-2018 10:59:50] PayPal\Core\PayPalHttpConnection : INFO: POST https://api.sandbox.paypal.com/v1/payments/payment
[17-08-2018 10:59:51] PayPal\Core\PayPalHttpConnection : INFO: Response Status 	: 400
[17-08-2018 10:59:51] PayPal\Core\PayPalHttpConnection : ERROR: Got Http response code 400 when accessing https://api.sandbox.paypal.com/v1/payments/payment. {"name":"VALIDATION_ERROR","details":[{"field":"payer.funding_instruments[0].credit_card.type","issue":"Required field is missing."}],"message":"Invalid request. See details.","information_link":"https://developer.paypal.com/docs/api/payments/#errors","debug_id":"bc78ed8bbbeb"}
[17-08-2018 11:01:52] PayPal\Core\PayPalHttpConnection : INFO: POST https://api.sandbox.paypal.com/v1/oauth2/token
[17-08-2018 11:01:54] PayPal\Core\PayPalHttpConnection : INFO: Response Status 	: 200
[17-08-2018 11:01:54] PayPal\Core\PayPalHttpConnection : INFO: POST https://api.sandbox.paypal.com/v1/payments/payment
[17-08-2018 11:01:55] PayPal\Core\PayPalHttpConnection : INFO: Response Status 	: 400
[17-08-2018 11:01:55] PayPal\Core\PayPalHttpConnection : ERROR: Got Http response code 400 when accessing https://api.sandbox.paypal.com/v1/payments/payment. {"name":"VALIDATION_ERROR","details":[{"field":"payer.funding_instruments[0].credit_card.type","issue":"Required field is missing."}],"message":"Invalid request. See details.","information_link":"https://developer.paypal.com/docs/api/payments/#errors","debug_id":"cc1003babeadb"}
[17-08-2018 11:02:35] PayPal\Core\PayPalHttpConnection : INFO: POST https://api.sandbox.paypal.com/v1/oauth2/token
[17-08-2018 11:02:36] PayPal\Core\PayPalHttpConnection : INFO: Response Status 	: 200
[17-08-2018 11:02:36] PayPal\Core\PayPalHttpConnection : INFO: POST https://api.sandbox.paypal.com/v1/payments/payment
[17-08-2018 11:02:53] PayPal\Core\PayPalHttpConnection : INFO: Response Status 	: 201
[17-08-2018 11:11:24] PayPal\Core\PayPalHttpConnection : INFO: POST https://api.sandbox.paypal.com/v1/oauth2/token
[17-08-2018 11:11:25] PayPal\Core\PayPalHttpConnection : INFO: Response Status 	: 200
[17-08-2018 11:11:25] PayPal\Core\PayPalHttpConnection : INFO: POST https://api.sandbox.paypal.com/v1/payments/payment
[17-08-2018 11:11:26] PayPal\Core\PayPalHttpConnection : INFO: Response Status 	: 400
[17-08-2018 11:11:26] PayPal\Core\PayPalHttpConnection : ERROR: Got Http response code 400 when accessing https://api.sandbox.paypal.com/v1/payments/payment. {"name":"VALIDATION_ERROR","details":[{"field":"payer.funding_instruments[0].credit_card.number","issue":"Value is invalid."}],"message":"Invalid request. See details.","information_link":"https://developer.paypal.com/docs/api/payments/#errors","debug_id":"60e011e45c2a4"}
[17-08-2018 11:11:57] PayPal\Core\PayPalHttpConnection : INFO: POST https://api.sandbox.paypal.com/v1/oauth2/token
[17-08-2018 11:11:58] PayPal\Core\PayPalHttpConnection : INFO: Response Status 	: 200
[17-08-2018 11:11:58] PayPal\Core\PayPalHttpConnection : INFO: POST https://api.sandbox.paypal.com/v1/payments/payment
[17-08-2018 11:12:11] PayPal\Core\PayPalHttpConnection : INFO: Response Status 	: 201
[17-08-2018 11:19:21] PayPal\Core\PayPalHttpConnection : INFO: POST https://api.sandbox.paypal.com/v1/oauth2/token
[17-08-2018 11:19:22] PayPal\Core\PayPalHttpConnection : INFO: Response Status 	: 200
[17-08-2018 11:19:22] PayPal\Core\PayPalHttpConnection : INFO: POST https://api.sandbox.paypal.com/v1/payments/payment
[17-08-2018 11:19:35] PayPal\Core\PayPalHttpConnection : INFO: Response Status 	: 201
[17-08-2018 12:00:59] PayPal\Core\PayPalHttpConnection : INFO: POST https://api.sandbox.paypal.com/v1/oauth2/token
[17-08-2018 12:01:01] PayPal\Core\PayPalHttpConnection : INFO: Response Status 	: 200
[17-08-2018 12:01:01] PayPal\Core\PayPalHttpConnection : INFO: POST https://api.sandbox.paypal.com/v1/payments/payment
[17-08-2018 12:01:23] PayPal\Core\PayPalHttpConnection : INFO: Response Status 	: 201
[17-08-2018 09:18:43] PayPal\Core\PayPalHttpConnection : INFO: POST https://api.sandbox.paypal.com/v1/oauth2/token
[17-08-2018 09:18:45] PayPal\Core\PayPalHttpConnection : INFO: Response Status 	: 200
[17-08-2018 09:18:45] PayPal\Core\PayPalHttpConnection : INFO: POST https://api.sandbox.paypal.com/v1/payments/payment
[17-08-2018 09:19:03] PayPal\Core\PayPalHttpConnection : INFO: Response Status 	: 201
[21-08-2018 03:23:18] PayPal\Core\PayPalHttpConnection : INFO: POST https://api.sandbox.paypal.com/v1/oauth2/token
[21-08-2018 03:23:20] PayPal\Core\PayPalHttpConnection : INFO: Response Status 	: 200
[21-08-2018 03:23:20] PayPal\Core\PayPalHttpConnection : INFO: POST https://api.sandbox.paypal.com/v1/payments/payment
[21-08-2018 03:23:36] PayPal\Core\PayPalHttpConnection : INFO: Response Status 	: 201[24-08-2018 09:27:56] PayPal\Core\PayPalHttpConnection : INFO: POST https://api.sandbox.paypal.com/v1/oauth2/token
[24-08-2018 09:27:58] PayPal\Core\PayPalHttpConnection : INFO: Response Status 	: 200
[24-08-2018 09:27:58] PayPal\Core\PayPalHttpConnection : INFO: POST https://api.sandbox.paypal.com/v1/payments/payment
[24-08-2018 09:28:12] PayPal\Core\PayPalHttpConnection : INFO: Response Status 	: 201
[31-08-2018 12:48:29] PayPal\Core\PayPalHttpConnection : INFO: POST https://api.sandbox.paypal.com/v1/oauth2/token
[31-08-2018 12:48:30] PayPal\Core\PayPalHttpConnection : INFO: Response Status 	: 200
[31-08-2018 12:48:30] PayPal\Core\PayPalHttpConnection : INFO: POST https://api.sandbox.paypal.com/v1/payments/payment
[31-08-2018 12:48:32] PayPal\Core\PayPalHttpConnection : INFO: Response Status 	: 201
[03-09-2018 10:50:18] PayPal\Core\PayPalHttpConnection : INFO: POST https://api.sandbox.paypal.com/v1/oauth2/token
[03-09-2018 10:50:19] PayPal\Core\PayPalHttpConnection : INFO: Response Status 	: 200
[03-09-2018 10:50:19] PayPal\Core\PayPalHttpConnection : INFO: POST https://api.sandbox.paypal.com/v1/payments/payment
[03-09-2018 10:50:29] PayPal\Core\PayPalHttpConnection : INFO: Response Status 	: 201
[03-09-2018 10:50:56] PayPal\Core\PayPalHttpConnection : INFO: POST https://api.sandbox.paypal.com/v1/oauth2/token
[03-09-2018 10:50:57] PayPal\Core\PayPalHttpConnection : INFO: Response Status 	: 200
[03-09-2018 10:50:57] PayPal\Core\PayPalHttpConnection : INFO: POST https://api.sandbox.paypal.com/v1/payments/payment
[03-09-2018 10:51:06] PayPal\Core\PayPalHttpConnection : INFO: Response Status 	: 201
[03-09-2018 10:54:55] PayPal\Core\PayPalHttpConnection : INFO: POST https://api.sandbox.paypal.com/v1/oauth2/token
[03-09-2018 10:54:56] PayPal\Core\PayPalHttpConnection : INFO: Response Status 	: 200
[03-09-2018 10:54:56] PayPal\Core\PayPalHttpConnection : INFO: POST https://api.sandbox.paypal.com/v1/payments/payment
[03-09-2018 10:55:05] PayPal\Core\PayPalHttpConnection : INFO: Response Status 	: 201
[03-09-2018 11:00:15] PayPal\Core\PayPalHttpConnection : INFO: POST https://api.sandbox.paypal.com/v1/oauth2/token
[03-09-2018 11:00:16] PayPal\Core\PayPalHttpConnection : INFO: Response Status 	: 200
[03-09-2018 11:00:16] PayPal\Core\PayPalHttpConnection : INFO: POST https://api.sandbox.paypal.com/v1/payments/payment
[03-09-2018 11:00:26] PayPal\Core\PayPalHttpConnection : INFO: Response Status 	: 201
[03-11-2018 03:18:53] PayPal\Core\PayPalHttpConnection : INFO: POST https://api.sandbox.paypal.com/v1/oauth2/token
[03-11-2018 03:18:54] PayPal\Core\PayPalHttpConnection : INFO: Response Status 	: 200
[03-11-2018 03:18:54] PayPal\Core\PayPalHttpConnection : INFO: POST https://api.sandbox.paypal.com/v1/payments/payment
[03-11-2018 03:18:59] PayPal\Core\PayPalHttpConnection : INFO: Response Status 	: 201
